Assignment_4/Verilog_Tutorial_18_Sept_2025/tb_FA.vcd
$date
	Fri Aug  2 20:11:42 2024
$end
$version
	Icarus Verilog
$end
$timescale
	1s
$end
$scope module tb_FA $end
$var wire 1 ! Sum $end
$var wire 1 " Cout $end
$var reg 1 # A $end
$var reg 1 $ B $end
$var reg 1 % Cin $end
$scope module dut $end
$var wire 1 # A $end
$var wire 1 $ B $end
$var wire 1 & C1 $end
$var wire 1 ' C2 $end
$var wire 1 % Cin $end
$var wire 1 " Cout $end
$var wire 1 ( S1 $end
$var wire 1 ! Sum $end
$upscope $end
$upscope $end
$enddefinitions $end
#0
$dumpvars
0(
0'
0&
0%
0$
0#
0"
0!
$end
#10
1!
1%
#20
1(
0%
1$
#30
1"
0!
1&
1%
#40
0"
1!
0&
0%
0$
1#
#50
1"
0!
1&
1%
#60
0&
0(
1'
0%
1$
#70
1!
1%
